import com.indic.sbm.pts.domain.entities.Proposal;

rule "Rule for Proposal"
    when
        proposalObject : Proposal( projectCost < 10000 );
    then
        proposalObject.setProjectCost(50000.0);
end;